%YAML 1.1
%TAG !u! tag:unity3d.com,2011:
--- !u!114 &11400000
MonoBehaviour:
  m_ObjectHideFlags: 0
  m_CorrespondingSourceObject: {fileID: 0}
  m_PrefabInstance: {fileID: 0}
  m_PrefabAsset: {fileID: 0}
  m_GameObject: {fileID: 0}
  m_Enabled: 1
  m_EditorHideFlags: 0
  m_Script: {fileID: 11500000, guid: c6762135759838b4f92e98ec511d7d21, type: 3}
  m_Name: GeometryIdentifierConfig
  m_EditorClassIdentifier: 
  m_tileConfig:
    ObjectField: {fileID: 11400000, guid: 258a1128194b9ea4c8c9852e4bf90333, type: 2}
    ResultType: 
  m_geoIdentifiers:
  - TileConfig:
      ObjectField: {fileID: 11400000, guid: 258a1128194b9ea4c8c9852e4bf90333, type: 2}
      ResultType: 
    TileIdx: 0
  - TileConfig:
      ObjectField: {fileID: 11400000, guid: 258a1128194b9ea4c8c9852e4bf90333, type: 2}
      ResultType: 
    TileIdx: 1
  - TileConfig:
      ObjectField: {fileID: 11400000, guid: 258a1128194b9ea4c8c9852e4bf90333, type: 2}
      ResultType: 
    TileIdx: 2
  - TileConfig:
      ObjectField: {fileID: 11400000, guid: 258a1128194b9ea4c8c9852e4bf90333, type: 2}
      ResultType: 
    TileIdx: 3
