%YAML 1.1
%TAG !u! tag:unity3d.com,2011:
--- !u!114 &11400000
MonoBehaviour:
  m_ObjectHideFlags: 0
  m_CorrespondingSourceObject: {fileID: 0}
  m_PrefabInstance: {fileID: 0}
  m_PrefabAsset: {fileID: 0}
  m_GameObject: {fileID: 0}
  m_Enabled: 1
  m_EditorHideFlags: 0
  m_Script: {fileID: 11500000, guid: 2b62eb9a828b10d4882bf188669ccd44, type: 3}
  m_Name: MSFloorTextureCollectionLayout
  m_EditorClassIdentifier: 
  m_uvLayoutConfig: {fileID: 11400000, guid: 84ea5e3a948eea84899b73cad9836d67, type: 2}
  m_tileBuilderTypes:
  - {fileID: -2883930176799186520, guid: 66513a118c89f314880f1667cbbaed9f, type: 2}
  - {fileID: -2960546713499816569, guid: 66513a118c89f314880f1667cbbaed9f, type: 2}
  - {fileID: -8219503186737019219, guid: 66513a118c89f314880f1667cbbaed9f, type: 2}
