# ProBuilder 5.0.3
# https://unity3d.com/unity/features/worldbuilding/probuilder
# 5/20/2021 12:42:46 PM

mtllib ./BLC.mtl
o BLC

g BLC
v 0.5 0 0
v 0.5 0 -0.5
v 0 0 -0.5
v 0 -1 -0.5
v 0.5 -1 -0.5
v 0.5 -1 0

vt -0.5 0
vt -0.5 -0.5
vt 0 -0.5
vt 0.5 -0.5
vt 0.5 0
vt 0 -1
vt -0.5 -1
vt 0 0
vt 0.5 -1
vt 0.3535534 -1
vt -0.3535534 -1
vt 0.3535534 0
vt -0.3535534 0

vn 0 1 0
vn 0 -1 0
vn 0 0 -1
vn 1 0 0
vn -0.7071068 0 0.7071068

usemtl Collider
f 1/1/1 2/2/1 3/3/1
f 4/3/2 5/4/2 6/5/2
f 2/1/3 5/7/3 4/6/3
f 4/6/3 3/8/3 2/1/3
f 1/8/4 6/6/4 5/9/4
f 5/9/4 2/5/4 1/8/4
f 3/13/5 4/11/5 6/10/5
f 6/10/5 1/12/5 3/13/5

