# ProBuilder 5.0.3
# https://unity3d.com/unity/features/worldbuilding/probuilder
# 5/20/2021 12:45:07 PM

mtllib ./BLHC.mtl
o BLHC

g BLHC
v 0 -1 -0.5
v 0 -1 0
v 0.5 -1 0
v 0.5 -1 -0.5
v 0 0 -0.5
v 0.5 0 -0.5
v 0.5 0 0
v 0 0 0

vt 0 -0.5
vt 0 0
vt 0.5 0
vt 0.5 -0.5
vt -0.5 -0.5
vt -0.5 0
vt 0 -1
vt -0.5 -1
vt 0.5 -1

vn 0 -1 0
vn 0 1 0
vn 0 0 -1
vn 1 0 0
vn -1 0 0
vn 0 0 1

usemtl Collider
f 4/4/1 3/3/1 2/2/1 1/1/1
f 8/2/2 7/6/2 6/5/2 5/1/2
f 5/2/3 6/6/3 4/8/3 1/7/3
f 6/3/4 7/2/4 3/7/4 4/9/4
f 8/2/5 5/6/5 1/8/5 2/7/5
f 7/3/6 8/2/6 2/7/6 3/9/6

