# ProBuilder 5.0.3
# https://unity3d.com/unity/features/worldbuilding/probuilder
# 5/20/2021 12:46:21 PM

mtllib ./BLHWC.mtl
o BLHWC

g BLHWC
v 0 1 0
v 0.5 1 0
v 0.5 1 -0.5
v 0 1 -0.5
v 0 0 -0.5
v 0.5 0 -0.5
v 0.5 0 0
v 0 0 0

vt 0 0
vt -0.5 0
vt -0.5 -0.5
vt 0 -0.5
vt 0.5 -0.5
vt 0.5 0
vt 0 1
vt -0.5 1
vt 0.5 1

vn 0 1 0
vn 0 -1 0
vn 0 0 -1
vn 1 0 0
vn -1 0 0
vn 0 0 1

usemtl Collider
f 1/1/1 2/2/1 3/3/1 4/4/1
f 6/5/2 7/6/2 8/1/2 5/4/2
f 4/7/3 3/8/3 6/2/3 5/1/3
f 3/9/4 2/7/4 7/1/4 6/6/4
f 1/7/5 4/8/5 5/2/5 8/1/5
f 2/9/6 1/7/6 8/1/6 7/6/6

