# ProBuilder 5.0.3
# https://unity3d.com/unity/features/worldbuilding/probuilder
# 5/20/2021 1:04:00 PM

mtllib ./NBLHWC.mtl
o NBLHWC

g NBLHWC
v 0.4999998 1 4.768372E-07
v -2.384186E-07 0.9999999 4.768372E-07
v -2.384186E-07 1 -0.4999995
v -0.5000002 1 -0.4999995
v -0.5000002 0.9999995 0.5000005
v 0.4999998 0.9999998 0.5000005
v 0 -1.192093E-07 0
v 0.5 0 0
v 0.5 -2.384186E-07 0.5
v -0.5 0 -0.5
v 0 1.192093E-07 -0.5
v -0.5 -4.768372E-07 0.5

vt -0.5 5.684339E-14
vt 2.842171E-14 5.684339E-14
vt -2.842171E-14 -0.5
vt 0.5 -0.5
vt 0.5 0.5
vt -0.5 0.5
vt 0.5 5.684342E-14
vt -0.5 -0.5
vt 2.384186E-07 0.9999999
vt -0.4999998 1
vt -0.5000005 0.9999996
vt 0.5000002 0.9999998
vt 0.4999995 1

vn -2.384186E-07 1 4.768372E-07
vn 2.384186E-07 -1 -4.768372E-07
vn -1.136868E-13 4.768372E-07 -1
vn 1 2.384186E-07 1.136868E-13
vn -1 -2.384186E-07 -1.136868E-13
vn 1.136868E-13 -4.768372E-07 1

usemtl Collider
f 6/6/1 1/1/1 2/2/1
f 2/2/1 3/3/1 4/4/1
f 2/2/1 4/4/1 5/5/1
f 6/6/1 2/2/1 5/5/1
f 12/6/2 7/2/2 9/5/2
f 12/6/2 10/8/2 7/2/2
f 10/8/2 11/3/2 7/2/2
f 7/2/2 8/7/2 9/5/2
f 1/10/3 8/1/3 7/2/3
f 7/2/3 2/9/3 1/10/3
f 6/11/4 9/1/4 8/2/4
f 8/2/4 1/9/4 6/11/4
f 3/9/3 11/2/3 10/7/3
f 10/7/3 4/12/3 3/9/3
f 2/9/4 7/2/4 11/7/4
f 11/7/4 3/13/4 2/9/4
f 4/10/5 10/1/5 12/7/5
f 12/7/5 5/12/5 4/10/5
f 5/11/6 12/1/6 9/7/6
f 9/7/6 6/13/6 5/11/6

