# ProBuilder 5.0.3
# https://unity3d.com/unity/features/worldbuilding/probuilder
# 5/20/2021 1:26:04 PM

mtllib ./TC.mtl
o TC

g TC
v 0.5 -1 0
v -0.5 -1 0
v -0.5 -1 0.5
v 0.5 -1 0.5
v -0.5 0 0
v 0.5 0 0
v 0.5 0 0.5
v -0.5 0 0.5

vt 0.5 0
vt -0.5 0
vt -0.5 0.5
vt 0.5 0.5
vt 0.5 -1
vt -0.5 -1
vt 0 0
vt 0 -1

vn 0 -1 0
vn 0 1 0
vn 0 0 -1
vn 1 0 0
vn -1 0 0
vn 0 0 1

usemtl Collider
f 1/1/1 4/4/1 3/3/1 2/2/1
f 8/4/2 7/3/2 6/2/2 5/1/2
f 5/1/3 6/2/3 1/6/3 2/5/3
f 6/7/4 7/2/4 4/6/4 1/8/4
f 8/1/5 5/7/5 2/8/5 3/5/5
f 7/1/6 8/2/6 3/6/6 4/5/6

