# ProBuilder 5.0.3
# https://unity3d.com/unity/features/worldbuilding/probuilder
# 5/20/2021 1:29:54 PM

mtllib ./TRHC.mtl
o TRHC

g TRHC
v 0 -1 0.5
v 0 -1 0
v -0.5 -1 0
v -0.5 -1 0.5
v -0.5 0 0
v 0 0 0
v 0 0 0.5
v -0.5 0 0.5

vt 0 0.5
vt 0 0
vt -0.5 0
vt -0.5 0.5
vt 0.5 0
vt 0.5 0.5
vt 0.5 -1
vt 0 -1
vt -0.5 -1

vn 0 -1 0
vn 0 1 0
vn 0 0 -1
vn 1 0 0
vn -1 0 0
vn 0 0 1

usemtl Collider
f 2/2/1 1/1/1 4/4/1 3/3/1
f 8/6/2 7/1/2 6/2/2 5/5/2
f 5/5/3 6/2/3 2/8/3 3/7/3
f 6/2/4 7/3/4 1/9/4 2/8/4
f 8/5/5 5/2/5 3/8/5 4/7/5
f 7/2/6 8/3/6 4/9/6 1/8/6

