# ProBuilder 5.0.3
# https://unity3d.com/unity/features/worldbuilding/probuilder
# 5/20/2021 1:30:52 PM

mtllib ./TRHWC.mtl
o TRHWC

g TRHWC
v -0.5 1 0
v 0 1 0
v 0 1 0.5
v -0.5 1 0.5
v -0.5 0 0
v 0 0 0
v 0 0 0.5
v -0.5 0 0.5

vt 0.5 0
vt 0 0
vt 0 0.5
vt 0.5 0.5
vt -0.5 0
vt -0.5 0.5
vt 0.5 1
vt 0 1
vt -0.5 1

vn 0 1 0
vn 0 -1 0
vn 0 0 -1
vn 1 0 0
vn -1 0 0
vn 0 0 1

usemtl Collider
f 4/4/1 3/3/1 2/2/1 1/1/1
f 6/2/2 7/3/2 8/6/2 5/5/2
f 1/7/3 2/8/3 6/2/3 5/1/3
f 2/8/4 3/9/4 7/5/4 6/2/4
f 4/7/5 1/8/5 5/2/5 8/1/5
f 3/8/6 4/9/6 8/5/6 7/2/6

