# ProBuilder 5.0.3
# https://unity3d.com/unity/features/worldbuilding/probuilder
# 5/20/2021 1:02:10 PM

mtllib ./TWC.mtl
o TWC

g TWC
v 0.5 1 0
v -0.5 1 0
v -0.5 1 0.5
v 0.5 1 0.5
v -0.5 0 0
v 0.5 0 0
v 0.5 0 0.5
v -0.5 0 0.5

vt -0.5 0
vt 0.5 0
vt 0.5 0.5
vt -0.5 0.5
vt 0.5 1
vt -0.5 1
vt 0 0
vt 0 1

vn 0 1 0
vn 0 -1 0
vn 0 0 -1
vn 1 0 0
vn -1 0 0
vn 0 0 1

usemtl Collider
f 3/3/1 4/4/1 1/1/1 2/2/1
f 6/2/2 7/3/2 8/4/2 5/1/2
f 2/5/3 1/6/3 6/1/3 5/2/3
f 1/8/4 4/6/4 7/1/4 6/7/4
f 3/5/5 2/8/5 5/7/5 8/2/5
f 4/5/6 3/6/6 8/1/6 7/2/6

